Business Report: Store Demand Forecasting
…
eval <- test %>%
  mutate(
    ds = as.POSIXct(ds)
  ) %>%
  left_join(forecast_final) %>%
  select(ds, y, yhat, yhat_upper, yhat_lower)
eval

## # A tibble: 365 x 5
##    ds                      y   yhat yhat_upper yhat_lower
##    <dttm>              <int>  <dbl>      <dbl>      <dbl>
##  1 2017-01-01 00:00:00 23709 26708.     28180.     25363.
##  2 2017-01-02 00:00:00 15772 16672.     18042.     15309.
##  3 2017-01-03 00:00:00 18650 20034.     21573.     18594.
##  4 2017-01-04 00:00:00 18510 20084.     21382.     18713.
##  5 2017-01-05 00:00:00 19895 21692.     23085.     20354.
##  6 2017-01-06 00:00:00 20994 23372.     24771.     22061.
##  7 2017-01-07 00:00:00 22591 24989.     26369.     23601.
##  8 2017-01-08 00:00:00 23700 26659.     27972.     25382.
##  9 2017-01-09 00:00:00 15797 16567.     17892.     15168.
## 10 2017-01-10 00:00:00 18608 19897.     21213.     18545.
## # ... with 355 more rows
…
